{
  "name": "ereshkigal/post-card",
  "apiVersion": 2,
  "title": "Post Card",
  "description": "Display a post in card format.",
  "icon": "megaphone",
  "category": "widgets",
  "attributes": {
    "picks": {
      "type": "string"
    }
  },
  "supports": {
    "html": false
  }
}
